Predicting Happiness from Lifestyle and Mental Health Factors – Ngoc Nhu Y Nguyen
…
The RMSE on the test set was 2.598, which means the model’s predictions are off by about 2.6 points on average. Given that the Happiness Score ranges from 0 to 10, this level of error suggests moderate predictive accuracy—the model captures some meaningful patterns in the data but still leaves a substantial portion of the variation unexplained. This indicates that while the model is somewhat useful, there may be other important factors influencing happiness that are not captured by the predictors included.

Coefficients and Significance

I extracted the model coefficients:

lasso_coef <- lasso_fit |>
  broom::tidy()
lasso_coef |>
  arrange(desc(abs(estimate)))

# A tibble: 26 × 3
   term                         estimate penalty
   <chr>                           <dbl>   <dbl>
 1 (Intercept)                  5.40      0.0554
 2 Diet Type_Vegetarian         0.0621    0.0554
 3 Social Interaction Score    -0.0606    0.0554
 4 Screen Time per Day (Hours)  0.0573    0.0554
 5 Exercise Level_Low          -0.0567    0.0554
 6 Country_Japan               -0.0259    0.0554
 7 Country_Canada               0.00118   0.0554
 8 Gender_Male                  0.000262  0.0554
 9 Age                          0         0.0554
10 Sleep Hours                  0         0.0554
# ℹ 16 more rows
…
